{
  "v": "4.5.7",
  "fr": 60,
  "ip": 0,
  "op": 200,
  "w": 100,
  "h": 100,
  "ddd": 0,
  "assets": [],
  "layers": [
    {
      "ddd": 0,
      "ind": 0,
      "ty": 4,
      "nm": "Polystar",
      "ks": {
        "o": {
          "a": 0,
          "k": 100
        },
        "r": {
          "a": 1,
          "k": [
            {
              "i": {
                "x": [ 0.833 ],
                "y": [ 0.833 ]
              },
              "o": {
                "x": [ 0.167 ],
                "y": [ 0.167 ]
              },
              "n": [ "0p833_0p833_0p167_0p167" ],
              "t": 160,
              "s": [ 0 ],
              "e": [ 90 ]
            },
            {
              "i": {
                "x": [ 0.833 ],
                "y": [ 0.833 ]
              },
              "o": {
                "x": [ 0.167 ],
                "y": [ 0.167 ]
              },
              "n": [ "0p833_0p833_0p167_0p167" ],
              "t": 180,
              "s": [ 90 ],
              "e": [ 180 ]
            },
            { "t": 200 }
          ]
        },
        "p": {
          "a": 1,
          "k": [
            {
              "i": {
                "x": 0.1,
                "y": 1
              },
              "o": {
                "x": 0.167,
                "y": 0.167
              },
              "n": "0p1_1_0p167_0p167",
              "t": 160,
              "s": [ 50, 75.603, 0 ],
              "e": [ 50, 25.603, 0 ],
              "to": [ 0, -8.33333301544189, 0 ],
              "ti": [ 0, 0, 0 ]
            },
            {
              "i": {
                "x": 0.833,
                "y": 0.833
              },
              "o": {
                "x": 0.9,
                "y": 0
              },
              "n": "0p833_0p833_0p9_0",
              "t": 180,
              "s": [ 50, 25.603, 0 ],
              "e": [ 50, 75.603, 0 ],
              "to": [ 0, 0, 0 ],
              "ti": [ 0, -8.33333301544189, 0 ]
            },
            { "t": 200 }
          ]
        },
        "a": {
          "a": 0,
          "k": [ 0, 0, 0 ]
        },
        "s": {
          "a": 0,
          "k": [ 56, 56, 100 ]
        }
      },
      "ao": 0,
      "shapes": [
        {
          "ty": "gr",
          "it": [
            {
              "ty": "sr",
              "sy": 1,
              "d": 1,
              "pt": {
                "a": 1,
                "k": [
                  {
                    "i": {
                      "x": [ 0.833 ],
                      "y": [ 0.833 ]
                    },
                    "o": {
                      "x": [ 0.167 ],
                      "y": [ 0.167 ]
                    },
                    "n": [ "0p833_0p833_0p167_0p167" ],
                    "t": 160,
                    "s": [ 8 ],
                    "e": [ 5 ]
                  },
                  { "t": 199 }
                ],
                "ix": 3
              },
              "p": {
                "a": 1,
                "k": [
                  {
                    "i": {
                      "x": 0.833,
                      "y": 0.833
                    },
                    "o": {
                      "x": 0.167,
                      "y": 0.167
                    },
                    "n": "0p833_0p833_0p167_0p167",
                    "t": 160,
                    "s": [ 0, 0 ],
                    "e": [ 0, 0 ],
                    "to": [ 0, 0 ],
                    "ti": [ 0, 0 ]
                  },
                  { "t": 199 }
                ],
                "ix": 4
              },
              "r": {
                "a": 1,
                "k": [
                  {
                    "i": {
                      "x": [ 0.833 ],
                      "y": [ 0.833 ]
                    },
                    "o": {
                      "x": [ 0.167 ],
                      "y": [ 0.167 ]
                    },
                    "n": [ "0p833_0p833_0p167_0p167" ],
                    "t": 160,
                    "s": [ 0 ],
                    "e": [ 90 ]
                  },
                  { "t": 199 }
                ],
                "ix": 5
              },
              "ir": {
                "a": 1,
                "k": [
                  {
                    "i": {
                      "x": [ 0.833 ],
                      "y": [ 0.833 ]
                    },
                    "o": {
                      "x": [ 0.167 ],
                      "y": [ 0.167 ]
                    },
                    "n": [ "0p833_0p833_0p167_0p167" ],
                    "t": 160,
                    "s": [ 13.086 ],
                    "e": [ 8.086 ]
                  },
                  { "t": 199 }
                ],
                "ix": 6
              },
              "is": {
                "a": 0,
                "k": 0,
                "ix": 8
              },
              "or": {
                "a": 1,
                "k": [
                  {
                    "i": {
                      "x": [ 0.833 ],
                      "y": [ 0.833 ]
                    },
                    "o": {
                      "x": [ 0.167 ],
                      "y": [ 0.167 ]
                    },
                    "n": [ "0p833_0p833_0p167_0p167" ],
                    "t": 160,
                    "s": [ 25.218 ],
                    "e": [ 18.618 ]
                  },
                  { "t": 199 }
                ],
                "ix": 7
              },
              "os": {
                "a": 0,
                "k": 0,
                "ix": 9
              },
              "ix": 1,
              "nm": "Polystar Path 1",
              "mn": "ADBE Vector Shape - Star"
            },
            {
              "ty": "fl",
              "c": {
                "a": 0,
                "k": [ 0, 0.82, 0.76, 1 ]
              },
              "o": {
                "a": 0,
                "k": 100
              },
              "nm": "Fill 1",
              "mn": "ADBE Vector Graphic - Fill"
            },
            {
              "ty": "tr",
              "p": {
                "a": 0,
                "k": [ 0.224, -0.387 ],
                "ix": 2
              },
              "a": {
                "a": 0,
                "k": [ 0, 0 ],
                "ix": 1
              },
              "s": {
                "a": 0,
                "k": [ 100, 100 ],
                "ix": 3
              },
              "r": {
                "a": 0,
                "k": 0,
                "ix": 6
              },
              "o": {
                "a": 0,
                "k": 100,
                "ix": 7
              },
              "sk": {
                "a": 0,
                "k": 0,
                "ix": 4
              },
              "sa": {
                "a": 0,
                "k": 0,
                "ix": 5
              },
              "nm": "Transform"
            }
          ],
          "nm": "Polystar 2",
          "np": 3,
          "mn": "ADBE Vector Group"
        }
      ],
      "ip": 160,
      "op": 200,
      "st": 136,
      "bm": 0,
      "sr": 1
    },
    {
      "ddd": 0,
      "ind": 1,
      "ty": 4,
      "nm": "Polygon",
      "ks": {
        "o": {
          "a": 0,
          "k": 100
        },
        "r": {
          "a": 0,
          "k": 0
        },
        "p": {
          "a": 1,
          "k": [
            {
              "i": {
                "x": 0.1,
                "y": 1
              },
              "o": {
                "x": 0.167,
                "y": 0.167
              },
              "n": "0p1_1_0p167_0p167",
              "t": 120,
              "s": [ 50, 75.603, 0 ],
              "e": [ 50, 25.603, 0 ],
              "to": [ 0, -8.33333301544189, 0 ],
              "ti": [ 0, 0, 0 ]
            },
            {
              "i": {
                "x": 0.833,
                "y": 0.833
              },
              "o": {
                "x": 0.9,
                "y": 0
              },
              "n": "0p833_0p833_0p9_0",
              "t": 140,
              "s": [ 50, 25.603, 0 ],
              "e": [ 50, 75.603, 0 ],
              "to": [ 0, 0, 0 ],
              "ti": [ 0, -8.33333301544189, 0 ]
            },
            { "t": 160 }
          ]
        },
        "a": {
          "a": 0,
          "k": [ 0, 0, 0 ]
        },
        "s": {
          "a": 0,
          "k": [ 56, 56, 100 ]
        }
      },
      "ao": 0,
      "shapes": [
        {
          "ty": "gr",
          "it": [
            {
              "ty": "sr",
              "sy": 2,
              "d": 1,
              "pt": {
                "a": 1,
                "k": [
                  {
                    "i": {
                      "x": [ 0.833 ],
                      "y": [ 0.833 ]
                    },
                    "o": {
                      "x": [ 0.167 ],
                      "y": [ 0.167 ]
                    },
                    "n": [ "0p833_0p833_0p167_0p167" ],
                    "t": 120,
                    "s": [ 3 ],
                    "e": [ 5 ]
                  },
                  { "t": 160 }
                ],
                "ix": 3
              },
              "p": {
                "a": 0,
                "k": [ 0, 0 ],
                "ix": 4
              },
              "r": {
                "a": 1,
                "k": [
                  {
                    "i": {
                      "x": [ 0.833 ],
                      "y": [ 0.833 ]
                    },
                    "o": {
                      "x": [ 0.167 ],
                      "y": [ 0.167 ]
                    },
                    "n": [ "0p833_0p833_0p167_0p167" ],
                    "t": 120,
                    "s": [ 0 ],
                    "e": [ 270 ]
                  },
                  { "t": 160 }
                ],
                "ix": 5
              },
              "or": {
                "a": 0,
                "k": 18.024,
                "ix": 7
              },
              "os": {
                "a": 0,
                "k": 0,
                "ix": 9
              },
              "ix": 1,
              "nm": "Polystar Path 1",
              "mn": "ADBE Vector Shape - Star"
            },
            {
              "ty": "fl",
              "c": {
                "a": 0,
                "k": [ 0, 0.82, 0.76, 1 ]
              },
              "o": {
                "a": 0,
                "k": 100
              },
              "nm": "Fill 1",
              "mn": "ADBE Vector Graphic - Fill"
            },
            {
              "ty": "tr",
              "p": {
                "a": 0,
                "k": [ 0, 0.71 ],
                "ix": 2
              },
              "a": {
                "a": 0,
                "k": [ 0, 0 ],
                "ix": 1
              },
              "s": {
                "a": 0,
                "k": [ 100, 100 ],
                "ix": 3
              },
              "r": {
                "a": 0,
                "k": 0,
                "ix": 6
              },
              "o": {
                "a": 0,
                "k": 100,
                "ix": 7
              },
              "sk": {
                "a": 0,
                "k": 0,
                "ix": 4
              },
              "sa": {
                "a": 0,
                "k": 0,
                "ix": 5
              },
              "nm": "Transform"
            }
          ],
          "nm": "Polystar 1",
          "np": 2,
          "mn": "ADBE Vector Group"
        }
      ],
      "ip": 120,
      "op": 160,
      "st": 96,
      "bm": 0,
      "sr": 1
    },
    {
      "ddd": 0,
      "ind": 2,
      "ty": 4,
      "nm": "Path",
      "ks": {
        "o": {
          "a": 0,
          "k": 100
        },
        "r": {
          "a": 1,
          "k": [
            {
              "i": {
                "x": [ 0.833 ],
                "y": [ 0.833 ]
              },
              "o": {
                "x": [ 0.167 ],
                "y": [ 0.167 ]
              },
              "n": [ "0p833_0p833_0p167_0p167" ],
              "t": 80,
              "s": [ 0 ],
              "e": [ 90 ]
            },
            {
              "i": {
                "x": [ 0.833 ],
                "y": [ 0.833 ]
              },
              "o": {
                "x": [ 0.167 ],
                "y": [ 0.167 ]
              },
              "n": [ "0p833_0p833_0p167_0p167" ],
              "t": 100,
              "s": [ 90 ],
              "e": [ 180 ]
            },
            { "t": 120 }
          ]
        },
        "p": {
          "a": 1,
          "k": [
            {
              "i": {
                "x": 0.1,
                "y": 1
              },
              "o": {
                "x": 0.167,
                "y": 0.167
              },
              "n": "0p1_1_0p167_0p167",
              "t": 80,
              "s": [ 50, 75.603, 0 ],
              "e": [ 50, 25.603, 0 ],
              "to": [ 0, -8.33333301544189, 0 ],
              "ti": [ 0, 0, 0 ]
            },
            {
              "i": {
                "x": 0.833,
                "y": 0.833
              },
              "o": {
                "x": 0.9,
                "y": 0
              },
              "n": "0p833_0p833_0p9_0",
              "t": 100,
              "s": [ 50, 25.603, 0 ],
              "e": [ 50, 75.603, 0 ],
              "to": [ 0, 0, 0 ],
              "ti": [ 0, -8.33333301544189, 0 ]
            },
            { "t": 120 }
          ]
        },
        "a": {
          "a": 0,
          "k": [ 0, 0, 0 ]
        },
        "s": {
          "a": 0,
          "k": [ 56, 56, 100 ]
        }
      },
      "ao": 0,
      "shapes": [
        {
          "ty": "gr",
          "it": [
            {
              "ind": 0,
              "ty": "sh",
              "ks": {
                "a": 0,
                "k": {
                  "i": [
                    [ 0, 0 ],
                    [ 0, 0 ],
                    [ 0, 0 ]
                  ],
                  "o": [
                    [ 0, 0 ],
                    [ 0, 0 ],
                    [ 0, 0 ]
                  ],
                  "v": [
                    [ -0.223, -15.138 ],
                    [ -14.732, 14.549 ],
                    [ 15.402, 14.772 ]
                  ],
                  "c": true
                }
              },
              "nm": "Path 1",
              "mn": "ADBE Vector Shape - Group"
            },
            {
              "ty": "fl",
              "c": {
                "a": 0,
                "k": [ 0, 0.82, 0.76, 1 ]
              },
              "o": {
                "a": 0,
                "k": 100
              },
              "nm": "Fill 1",
              "mn": "ADBE Vector Graphic - Fill"
            },
            {
              "ty": "tr",
              "p": {
                "a": 0,
                "k": [ 1, 0 ],
                "ix": 2
              },
              "a": {
                "a": 0,
                "k": [ 0, 0 ],
                "ix": 1
              },
              "s": {
                "a": 0,
                "k": [ 100, 100 ],
                "ix": 3
              },
              "r": {
                "a": 0,
                "k": 0,
                "ix": 6
              },
              "o": {
                "a": 0,
                "k": 100,
                "ix": 7
              },
              "sk": {
                "a": 0,
                "k": 0,
                "ix": 4
              },
              "sa": {
                "a": 0,
                "k": 0,
                "ix": 5
              },
              "nm": "Transform"
            }
          ],
          "nm": "Shape 1",
          "np": 3,
          "mn": "ADBE Vector Group"
        }
      ],
      "ip": 80,
      "op": 120,
      "st": 56,
      "bm": 0,
      "sr": 1
    },
    {
      "ddd": 0,
      "ind": 3,
      "ty": 4,
      "nm": "Rect",
      "ks": {
        "o": {
          "a": 0,
          "k": 100
        },
        "r": {
          "a": 0,
          "k": 0
        },
        "p": {
          "a": 0,
          "k": [ 50, 75.603, 0 ]
        },
        "a": {
          "a": 0,
          "k": [ 0, 0, 0 ]
        },
        "s": {
          "a": 0,
          "k": [ 56, 56, 100 ]
        }
      },
      "ao": 0,
      "shapes": [
        {
          "ty": "gr",
          "it": [
            {
              "ty": "rc",
              "d": 1,
              "s": {
                "a": 1,
                "k": [
                  {
                    "i": {
                      "x": [ 0, 0 ],
                      "y": [ 1, 1 ]
                    },
                    "o": {
                      "x": [ 0.167, 0.167 ],
                      "y": [ 0.167, 0.167 ]
                    },
                    "n": [ "0_1_0p167_0p167", "0_1_0p167_0p167" ],
                    "t": 40,
                    "s": [ 20, 20 ],
                    "e": [ 39, 39 ]
                  },
                  {
                    "i": {
                      "x": [ 0.833, 0.833 ],
                      "y": [ 0.833, 0.833 ]
                    },
                    "o": {
                      "x": [ 1, 1 ],
                      "y": [ 0, 0 ]
                    },
                    "n": [ "0p833_0p833_1_0", "0p833_0p833_1_0" ],
                    "t": 60,
                    "s": [ 39, 39 ],
                    "e": [ 20, 20 ]
                  },
                  { "t": 80 }
                ]
              },
              "p": {
                "a": 1,
                "k": [
                  {
                    "i": {
                      "x": 0,
                      "y": 1
                    },
                    "o": {
                      "x": 0.167,
                      "y": 0.167
                    },
                    "n": "0_1_0p167_0p167",
                    "t": 40,
                    "s": [ 0, 0 ],
                    "e": [ 0, -100 ],
                    "to": [ 0, 0 ],
                    "ti": [ 0, 0 ]
                  },
                  {
                    "i": {
                      "x": 0.833,
                      "y": 0.833
                    },
                    "o": {
                      "x": 1,
                      "y": 0
                    },
                    "n": "0p833_0p833_1_0",
                    "t": 60,
                    "s": [ 0, -100 ],
                    "e": [ 0, 0 ],
                    "to": [ 0, 0 ],
                    "ti": [ 0, 0 ]
                  },
                  { "t": 80 }
                ]
              },
              "r": {
                "a": 1,
                "k": [
                  {
                    "i": {
                      "x": [ 0 ],
                      "y": [ 1 ]
                    },
                    "o": {
                      "x": [ 0.167 ],
                      "y": [ 0.167 ]
                    },
                    "n": [ "0_1_0p167_0p167" ],
                    "t": 40,
                    "s": [ 34 ],
                    "e": [ 0 ]
                  },
                  {
                    "i": {
                      "x": [ 0.833 ],
                      "y": [ 0.833 ]
                    },
                    "o": {
                      "x": [ 1 ],
                      "y": [ 0 ]
                    },
                    "n": [ "0p833_0p833_1_0" ],
                    "t": 60,
                    "s": [ 0 ],
                    "e": [ 34 ]
                  },
                  { "t": 80 }
                ]
              },
              "nm": "Rectangle Path 1",
              "mn": "ADBE Vector Shape - Rect"
            },
            {
              "ty": "fl",
              "c": {
                "a": 0,
                "k": [ 0, 0.82, 0.76, 1 ]
              },
              "o": {
                "a": 0,
                "k": 100
              },
              "nm": "Fill 1",
              "mn": "ADBE Vector Graphic - Fill"
            },
            {
              "ty": "tr",
              "p": {
                "a": 0,
                "k": [ 0, 0 ],
                "ix": 2
              },
              "a": {
                "a": 0,
                "k": [ 0, 0 ],
                "ix": 1
              },
              "s": {
                "a": 0,
                "k": [ 100, 100 ],
                "ix": 3
              },
              "r": {
                "a": 0,
                "k": 0,
                "ix": 6
              },
              "o": {
                "a": 0,
                "k": 100,
                "ix": 7
              },
              "sk": {
                "a": 0,
                "k": 0,
                "ix": 4
              },
              "sa": {
                "a": 0,
                "k": 0,
                "ix": 5
              },
              "nm": "Transform"
            }
          ],
          "nm": "Rectangle 1",
          "np": 3,
          "mn": "ADBE Vector Group"
        }
      ],
      "ip": 40,
      "op": 80,
      "st": 16,
      "bm": 0,
      "sr": 1
    },
    {
      "ddd": 0,
      "ind": 4,
      "ty": 4,
      "nm": "Elipse",
      "ks": {
        "o": {
          "a": 0,
          "k": 100
        },
        "r": {
          "a": 0,
          "k": 0.221
        },
        "p": {
          "a": 0,
          "k": [ 50, 75.603, 0 ]
        },
        "a": {
          "a": 0,
          "k": [ 0, 0, 0 ]
        },
        "s": {
          "a": 0,
          "k": [ 56, 56, 100 ]
        }
      },
      "ao": 0,
      "shapes": [
        {
          "ty": "gr",
          "it": [
            {
              "d": 1,
              "ty": "el",
              "s": {
                "a": 1,
                "k": [
                  {
                    "i": {
                      "x": [ 0, 0 ],
                      "y": [ 1, 1 ]
                    },
                    "o": {
                      "x": [ 0.167, 0.167 ],
                      "y": [ 0.167, 0.167 ]
                    },
                    "n": [ "0_1_0p167_0p167", "0_1_0p167_0p167" ],
                    "t": 0,
                    "s": [ 22.068, 22.068 ],
                    "e": [ 47.068, 47.068 ]
                  },
                  {
                    "i": {
                      "x": [ 0.833, 0.833 ],
                      "y": [ 0.833, 0.833 ]
                    },
                    "o": {
                      "x": [ 1, 1 ],
                      "y": [ 0, 0 ]
                    },
                    "n": [ "0p833_0p833_1_0", "0p833_0p833_1_0" ],
                    "t": 20,
                    "s": [ 47.068, 47.068 ],
                    "e": [ 22.068, 22.068 ]
                  },
                  { "t": 40 }
                ]
              },
              "p": {
                "a": 1,
                "k": [
                  {
                    "i": {
                      "x": 0,
                      "y": 1
                    },
                    "o": {
                      "x": 0.167,
                      "y": 0.167
                    },
                    "n": "0_1_0p167_0p167",
                    "t": 0,
                    "s": [ 0, 0 ],
                    "e": [ 0, -98 ],
                    "to": [ 0, -16.3333339691162 ],
                    "ti": [ 0, 0 ]
                  },
                  {
                    "i": {
                      "x": 0.833,
                      "y": 0.833
                    },
                    "o": {
                      "x": 1,
                      "y": 0
                    },
                    "n": "0p833_0p833_1_0",
                    "t": 20,
                    "s": [ 0, -98 ],
                    "e": [ 0, 0 ],
                    "to": [ 0, 0 ],
                    "ti": [ 0, -16.3333339691162 ]
                  },
                  { "t": 40 }
                ]
              },
              "nm": "Ellipse Path 1",
              "mn": "ADBE Vector Shape - Ellipse"
            },
            {
              "ty": "fl",
              "c": {
                "a": 0,
                "k": [ 0, 0.82, 0.76, 1 ]
              },
              "o": {
                "a": 0,
                "k": 100
              },
              "nm": "Fill 1",
              "mn": "ADBE Vector Graphic - Fill"
            },
            {
              "ty": "tr",
              "p": {
                "a": 0,
                "k": [ 0, 0 ],
                "ix": 2
              },
              "a": {
                "a": 0,
                "k": [ 0, 0 ],
                "ix": 1
              },
              "s": {
                "a": 0,
                "k": [ 100, 100 ],
                "ix": 3
              },
              "r": {
                "a": 0,
                "k": 0,
                "ix": 6
              },
              "o": {
                "a": 0,
                "k": 100,
                "ix": 7
              },
              "sk": {
                "a": 0,
                "k": 0,
                "ix": 4
              },
              "sa": {
                "a": 0,
                "k": 0,
                "ix": 5
              },
              "nm": "Transform"
            }
          ],
          "nm": "Ellipse 1",
          "np": 2,
          "mn": "ADBE Vector Group"
        }
      ],
      "ip": 0,
      "op": 40,
      "st": -24,
      "bm": 0,
      "sr": 1
    },
    {
      "ddd": 0,
      "ind": 5,
      "ty": 1,
      "nm": "bg",
      "ks": {
        "o": {
          "a": 0,
          "k": 100
        },
        "r": {
          "a": 0,
          "k": 0
        },
        "p": {
          "a": 0,
          "k": [ 50, 50, 0 ]
        },
        "a": {
          "a": 0,
          "k": [ 50, 50, 0 ]
        },
        "s": {
          "a": 0,
          "k": [ 100, 100, 100 ]
        }
      },
      "ao": 0,
      "sw": 100,
      "sh": 100,
      "sc": "#ffffff",
      "ip": 0,
      "op": 200,
      "st": 0,
      "bm": 0,
      "sr": 1
    }
  ]
}